<?xml version="1.0" encoding="UTF-8"?>
<robot generator="Robot 5.0.1 (Python 3.9.2 on win32)" generated="20220811 16:38:13.241" rpa="false" schemaversion="3">
<suite id="s1" name="Marvel" source="C:\Users\edivane.souza\Desktop\escola.tech.vida.nova\teste_software\rotot_marvel\marvel.robot">
<kw name="Configurar Sessao" library="marvel" type="SETUP">
<kw name="Set Variable" library="BuiltIn">
<var>${URL}</var>
<arg>${URL_COMIC}?apikey=${API_KEY}</arg>
<doc>Returns the given values which can then be assigned to a variables.</doc>
<msg timestamp="20220811 16:38:13.369" level="INFO">${URL} = v1/public/comics?apikey=6d14260545e843af566d8324e0e6d406</msg>
<status status="PASS" starttime="20220811 16:38:13.369" endtime="20220811 16:38:13.369"/>
</kw>
<status status="PASS" starttime="20220811 16:38:13.369" endtime="20220811 16:38:13.369"/>
</kw>
<test id="s1-t1" name="Testar API Comics da Marvel" line="8">
<kw name="Configurar Sessao" library="marvel">
<kw name="Set Variable" library="BuiltIn">
<var>${URL}</var>
<arg>${URL_COMIC}?apikey=${API_KEY}</arg>
<doc>Returns the given values which can then be assigned to a variables.</doc>
<msg timestamp="20220811 16:38:13.384" level="INFO">${URL} = v1/public/comics?apikey=6d14260545e843af566d8324e0e6d406</msg>
<status status="PASS" starttime="20220811 16:38:13.384" endtime="20220811 16:38:13.384"/>
</kw>
<status status="PASS" starttime="20220811 16:38:13.384" endtime="20220811 16:38:13.384"/>
</kw>
<kw name="Realizar requisicao para API" library="marvel">
<kw name="Create Session" library="RequestsLibrary">
<arg>requisicao_comics</arg>
<arg>${BASE_URL}</arg>
<arg>headers=${HEADERS}</arg>
<doc>Create Session: create a HTTP session to a server</doc>
<msg timestamp="20220811 16:38:13.384" level="INFO">Creating Session using : alias=requisicao_comics, url=https://gateway.marvel.com:443/, headers={'Referer': 'developer.marvel.com', 'Content-Type': 'application/json'},                     cookies={}, auth=None, timeout=None, proxies=None, verify=False,                     debug=0 </msg>
<status status="PASS" starttime="20220811 16:38:13.384" endtime="20220811 16:38:13.384"/>
</kw>
<kw name="GET On Session" library="RequestsLibrary">
<var>${response_comics}</var>
<arg>requisicao_comics</arg>
<arg>url=${URL_COMIC}?apikey=${API_KEY}</arg>
<doc>Sends a GET request on a previously created HTTP Session.</doc>
<msg timestamp="20220811 16:38:15.069" level="INFO">GET Request : url=https://gateway.marvel.com:443/v1/public/comics?apikey=6d14260545e843af566d8324e0e6d406 
 path_url=/v1/public/comics?apikey=6d14260545e843af566d8324e0e6d406 
 headers={'User-Agent': 'python-requests/2.28.1', 'Accept-Encoding': 'gzip, deflate', 'Accept': '*/*', 'Connection': 'keep-alive', 'Referer': 'developer.marvel.com', 'Content-Type': 'application/json'} 
 body=None 
 </msg>
<msg timestamp="20220811 16:38:15.069" level="INFO">GET Response : url=https://gateway.marvel.com:443/v1/public/comics?apikey=6d14260545e843af566d8324e0e6d406 
 status=200, reason=OK 
 headers={'Content-Encoding': 'gzip', 'ETag': '81bf8190012eedec225b5bc88c9287f0ab67b608', 'Content-Type': 'application/json; charset=utf-8', 'Date': 'Thu, 11 Aug 2022 19:44:36 GMT', 'Connection': 'keep-alive', 'Transfer-Encoding': 'chunked'} 
 body={"code":200,"status":"Ok","copyright":"© 2022 MARVEL","attributionText":"Data provided by Marvel. © 2022 MARVEL","attributionHTML":"&lt;a href=\"http://marvel.com\"&gt;Data provided by Marvel. © 2022 MARVEL&lt;/a&gt;","etag":"81bf8190012eedec225b5bc88c9287f0ab67b608","data":{"offset":0,"limit":20,"total":52706,"count":20,"results":[{"id":82967,"digitalId":0,"title":"Marvel Previews (2017)","issueNumber":0,"variantDescription":"","description":"","modified":"2019-11-07T08:46:15-0500","isbn":"","upc":"75960608839302811","diamondCode":"","ean":"","issn":"","format":"","pageCount":112,"textObjects":[],"resourceURI":"http://gateway.marvel.com/v1/public/comics/82967","urls":[{"type":"detail","url":"http://marvel.com/comics/issue/82967/marvel_previews_2017?utm_campaign=apiRef&amp;utm_source=6d14260545e843af566d8324e0e6d406"}],"series":{"resourceURI":"http://gateway.marvel.com/v1/public/series/23665","name":"Marvel Previews (2017 - Present)"},"variants":[{"resourceURI":"http://gateway.marvel.com/v1/public/comics/82965","name":"Marvel Previews (2017)"},{"resourceURI":"http://gateway.marvel.com/v1/public/comics/82970","name":"Marvel Previews (2017)"},{"resourceURI":"http://gateway.marvel.com/v1/public/comics/82969","name":"Marvel Previews (2017)"},{"resourceURI":"http://gateway.marvel.com/v1/public/comics/74697","name":"Marvel Previews (2017)"},{"resourceURI":"http://gateway.marvel.com/v1/public/comics/72736","name":"Marvel Previews (2017)"},{"resourceURI":"http://gateway.marvel.com/v1/public/comics/75668","name":"Marvel Previews (2017)"},{"resourceURI":"http://gateway.marvel.com/v1/public/comics/65364","name":"Marvel Previews (2017)"},{"resourceURI":"http://gateway.marvel.com/v1/public/comics/65158","name":"Marvel Previews (2017)"},{"resourceURI":"http://gateway.marvel.com/v1/public/comics/65028","name":"Marvel Previews (2017)"},{"resourceURI":"http://gateway.marvel.com/v1/public/comics/75662","name":"Marvel Previews (2017)"},{"resourceURI":"http://gateway.marvel.com/v1/public/comics/74320","name":"Marvel Previews (2017)"},{"resourceURI":"http://gateway.marvel.com/v1/public/comics/73776","name":"Marvel Previews (2017)"}],"collections":[],"collectedIssues":[],"dates":[{"type":"onsaleDate","date":"2099-10-30T00:00:00-0500"},{"type":"focDate","date":"2019-10-07T00:00:00-0400"}],"prices":[{"type":"printPrice","price":0}],"thumbnail":{"path":"http://i.annihil.us/u/prod/marvel/i/mg/b/40/image_not_available","extension":"jpg"},"images":[],"creators":{"available":1,"collectionURI":"http://gateway.marvel.com/v1/public/comics/82967/creators","items":[{"resourceURI":"http://gateway.marvel.com/v1/public/creators/10021","name":"Jim Nausedas","role":"editor"}],"returned":1},"characters":{"available":0,"collectionURI":"http://gateway.marvel.com/v1/public/comics/82967/characters","items":[],"returned":0},"stories":{"available":2,"collectionURI":"http://gateway.marvel.com/v1/public/comics/82967/stories","items":[{"resourceURI":"http://gateway.marvel.com/v1/public/stories/183698","name":"cover from Marvel Previews (2017)","type":"cover"},{"resourceURI":"http://gateway.marvel.com/v1/public/stories/183699","name":"story from Marvel Previews (2017)","type":"interiorStory"}],"returned":2},"events":{"available":0,"collectionURI":"http://gateway.marvel.com/v1/public/comics/82967/events","items":[],"returned":0}},{"id":82965,"digitalId":0,"title":"Marvel Previews (2017)","issueNumber":0,"variantDescription":"","description":"","modified":"2019-08-21T17:11:27-0400","isbn":"","upc":"75960608839302611","diamondCode":"JUL190068","ean":"","issn":"","format":"","pageCount":152,"textObjects":[],"resourceURI":"http://gateway.marvel.com/v1/public/comics/82965","urls":[{"type":"detail","url":"http://marvel.com/comics/issue/82965/marvel_previews_2017?utm_campaign=apiRef&amp;utm_source=6d14260545e843af566d8324e0e6d406"}],"series":{"resourceURI":"http://gateway.marvel.com/v1/public/series/23665","name":"Marvel Previews (2017 - Present)"},"variants":[{"resourceURI":"http://gateway.marvel.com/v1/public/comics/82967","name":"Marvel Previews (2017)"},{"resourceURI":"http://gateway.marvel.com/v1/public/comics/82970","name":"Marvel Previews (2017)"},{"resourceURI":"http://gateway.marvel.com/v1/public/comics/82969","name":"Marvel Previews (2017)"},{"resourceURI":"http://gateway.marvel.com/v1/public/comics/74697","name":"Marvel Previews (2017)"},{"resourceURI":"http://gateway.marvel.com/v1/public/comics/72736","name":"Marvel Previews (2017)"},{"resourceURI":"http://gateway.marvel.com/v1/public/comics/75668","name":"Marvel Previews (2017)"},{"resourceURI":"http://gateway.marvel.com/v1/public/comics/65364","name":"Marvel Previews (2017)"},{"resourceURI":"http://gateway.marvel.com/v1/public/comics/65158","name":"Marvel Previews (2017)"},{"resourceURI":"http://gateway.marvel.com/v1/public/comics/65028","name":"Marvel Previews (2017)"},{"resourceURI":"http://gateway.marvel.com/v1/public/comics/75662","name":"Marvel Previews (2017)"},{"resourceURI":"http://gateway.marvel.com/v1/public/comics/74320","name":"Marvel Previews (2017)"},{"resourceURI":"http://gateway.marvel.com/v1/public/comics/73776","name":"Marvel Previews (2017)"}],"collections":[],"collectedIssues":[],"dates":[{"type":"onsaleDate","date":"2099-08-28T00:00:00-0500"},{"type":"focDate","date":"2019-08-05T00:00:00-0400"}],"prices":[{"type":"printPrice","price":0}],"thumbnail":{"path":"http://i.annihil.us/u/prod/marvel/i/mg/b/40/image_not_available","extension":"jpg"},"images":[],"creators":{"available":0,"collectionURI":"http://gateway.marvel.com/v1/public/comics/82965/creators","items":[],"returned":0},"characters":{"available":0,"collectionURI":"http://gateway.marvel.com/v1/public/comics/82965/characters","items":[],"returned":0},"stories":{"available":0,"collectionURI":"http://gateway.marvel.com/v1/public/comics/82965/stories","items":[],"returned":0},"events":{"available":0,"collectionURI":"http://gateway.marvel.com/v1/public/comics/82965/events","items":[],"returned":0}},{"id":82970,"digitalId":0,"title":"Marvel Previews (2017)","issueNumber":0,"variantDescription":"","description":"","modified":"2020-02-07T09:35:32-0500","isbn":"","upc":"75960608839303111","diamondCode":"","ean":"","issn":"","format":"","pageCount":112,"textObjects":[],"resourceURI":"http://gateway.marvel.com/v1/public/comics/82970","urls":[{"type":"detail","url":"http://marvel.com/comics/issue/82970/marvel_previews_2017?utm_campaign=apiRef&amp;utm_source=6d14260545e843af566d8324e0e6d406"},{"type":"purchase","url":"http://comicstore.marvel.com/Marvel-Previews-0/digital-comic/52952?utm_campaign=apiRef&amp;utm_source=6d14260545e843af566d8324e0e6d406"}],"series":{"resourceURI":"http://gateway.marvel.com/v1/public/series/23665","name":"Marvel Previews (2017 - Present)"},"variants":[{"resourceURI":"http://gateway.marvel.com/v1/public/comics/82967","name":"Marvel Previews (2017)"},{"resourceURI":"http://gateway.marvel.com/v1/public/comics/82965","name":"Marvel Previews (2017)"},{"resourceURI":"http://gateway.marvel.com/v1/public/comics/82969","name":"Marvel Previews (2017)"},{"resourceURI":"http://gateway.marvel.com/v1/public/comics/74697","name":"Marvel Previews (2017)"},{"resourceURI":"http://gateway.marvel.com/v1/public/comics/72736","name":"Marvel Previews (2017)"},{"resourceURI":"http://gateway.marvel.com/v1/public/comics/75668","name":"Marvel Previews (2017)"},{"resourceURI":"http://gateway.marvel.com/v1/public/comics/65364","name":"Marvel Previews (2017)"},{"resourceURI":"http://gateway.marvel.com/v1/public/comics/65158","name":"Marvel Previews (2017)"},{"resourceURI":"http://gateway.marvel.com/v1/public/comics/65028","name":"Marvel Previews (2017)"},{"resourceURI":"http://gateway.marvel.com/v1/public/comics/75662","name":"Marvel Previews (2017)"},{"resourceURI":"http://gateway.marvel.com/v1/public/comics/74320","name":"Marvel Previews (2017)"},{"resourceURI":"http://gateway.marvel.com/v1/public/comics/73776","name":"Marvel Previews (2017)"}],"collections":[],"collectedIssues":[],"dates":[{"type":"onsaleDate","date":"2099-01-29T00:00:00-0500"},{"type":"focDate","date":"2020-01-06T00:00:00-0500"}],"prices":[{"type":"printPrice","price":0}],"thumbnail":{"path":"http://i.annihil.us/u/prod/marvel/i/mg/c/80/5e3d7536c8ada","extension":"jpg"},"images":[{"path":"http://i.annihil.us/u/prod/marvel/i/mg/c/80/5e3d7536c8ada","extension":"jpg"}],"creators":{"available":1,"collectionURI":"http://gateway.marvel.com/v1/public/comics/82970/creators","items":[{"resourceURI":"http://gateway.marvel.com/v1/public/creators/10021","name":"Jim Nausedas","role":"editor"}],"returned":1},"characters":{"available":0,"collectionURI":"http://gateway.marvel.com/v1/public/comics/82970/characters","items":[],"returned":0},"stories":{"available":1,"collectionURI":"http://gateway.marvel.com/v1/public/comics/82970/stories","items":[{"resourceURI":"http://gateway.marvel.com/v1/public/stories/183704","name":"cover from Marvel Previews (2017)","type":"cover"}],"returned":1},"events":{"available":0,"collectionURI":"http://gateway.marvel.com/v1/public/comics/82970/events","items":[],"returned":0}},{"id":1003,"digitalId":0,"title":"Sentry, the (Trade Paperback)","issueNumber":0,"variantDescription":"","description":"","modified":"-0001-11-30T00:00:00-0500","isbn":"0-7851-0799-1","upc":"","diamondCode":"","ean":"","issn":"","format":"Trade Paperback","pageCount":240,"textObjects":[{"type":"issue_solicit_text","language":"en-us","text":"On the edge of alcoholism and a failed marriage, Bob Reynolds wakes up to discover his true nature. A forgotten hero, he must unravel the conspiracy to erase his memory from mankind before an evil entity returns."}],"resourceURI":"http://gateway.marvel.com/v1/public/comics/1003","urls":[{"type":"detail","url":"http://marvel.com/comics/collection/1003/sentry_the_trade_paperback?utm_campaign=apiRef&amp;utm_source=6d14260545e843af566d8324e0e6d406"}],"series":{"resourceURI":"http://gateway.marvel.com/v1/public/series/65","name":"Sentry, the (1999)"},"variants":[],"collections":[],"... (set the log level to DEBUG or TRACE to see the full content) 
 </msg>
<msg timestamp="20220811 16:38:15.069" level="INFO">C:\Users\edivane.souza\AppData\Roaming\Python\Python39\site-packages\urllib3\connectionpool.py:1045: InsecureRequestWarning: Unverified HTTPS request is being made to host 'proxy.la.interbrew.net'. Adding certificate verification is strongly advised. See: https://urllib3.readthedocs.io/en/1.26.x/advanced-usage.html#ssl-warnings
  warnings.warn(</msg>
<msg timestamp="20220811 16:38:15.069" level="INFO">${response_comics} = &lt;Response [200]&gt;</msg>
<status status="PASS" starttime="20220811 16:38:13.384" endtime="20220811 16:38:15.069"/>
</kw>
<kw name="Log To Console" library="BuiltIn">
<arg>${response_comics}</arg>
<doc>Logs the given message to the console.</doc>
<status status="PASS" starttime="20220811 16:38:15.069" endtime="20220811 16:38:15.069"/>
</kw>
<kw name="Set Test Variable" library="BuiltIn">
<arg>${response_comics}</arg>
<doc>Makes a variable available everywhere within the scope of the current test.</doc>
<msg timestamp="20220811 16:38:15.069" level="INFO">${response_comics} = &lt;Response [200]&gt;</msg>
<status status="PASS" starttime="20220811 16:38:15.069" endtime="20220811 16:38:15.069"/>
</kw>
<status status="PASS" starttime="20220811 16:38:13.384" endtime="20220811 16:38:15.069"/>
</kw>
<kw name="Validar se a chave &quot;code&quot; esta preenchida" library="marvel">
<kw name="Convert To Integer" library="BuiltIn">
<var>${StatusCodeInt}</var>
<arg>200</arg>
<doc>Converts the given item to an integer number.</doc>
<msg timestamp="20220811 16:38:15.069" level="INFO">${StatusCodeInt} = 200</msg>
<status status="PASS" starttime="20220811 16:38:15.069" endtime="20220811 16:38:15.069"/>
</kw>
<kw name="Should Be Equal" library="BuiltIn">
<arg>${response_comics.json()}[code]</arg>
<arg>${StatusCodeInt}</arg>
<doc>Fails if the given objects are unequal.</doc>
<status status="PASS" starttime="20220811 16:38:15.069" endtime="20220811 16:38:15.084"/>
</kw>
<status status="PASS" starttime="20220811 16:38:15.069" endtime="20220811 16:38:15.084"/>
</kw>
<status status="PASS" starttime="20220811 16:38:13.369" endtime="20220811 16:38:15.084"/>
</test>
<status status="PASS" starttime="20220811 16:38:13.241" endtime="20220811 16:38:15.084"/>
</suite>
<statistics>
<total>
<stat pass="1" fail="0" skip="0">All Tests</stat>
</total>
<tag>
</tag>
<suite>
<stat pass="1" fail="0" skip="0" id="s1" name="Marvel">Marvel</stat>
</suite>
</statistics>
<errors>
</errors>
</robot>
